<svg xmlns="http://www.w3.org/2000/svg" width="19.999" height="20" viewBox="0 0 19.999 20">
  <path id="times" d="M12.982,106l6.732-6.732a1,1,0,0,0,0-1.411L18.15,96.29a1,1,0,0,0-1.411,0l-6.732,6.733L3.274,96.29a1,1,0,0,0-1.411,0L.3,97.854a1,1,0,0,0,0,1.411L7.032,106,.3,112.73a1,1,0,0,0,0,1.411l1.564,1.564a1,1,0,0,0,1.411,0l6.732-6.733,6.732,6.732a1,1,0,0,0,1.411,0l1.564-1.564a1,1,0,0,0,0-1.411Z" transform="translate(-0.008 -95.997)" fill="#F6921E"/>
</svg>
